{
    "profile": {
        "id": 2,
        "user": {
            "username": "kpsdkd",
            "password" : "Taba79Ali"
        },
        "first_name": "seyed",
        "last_name": "taba",
        "rate": 0.0,
        "number_of_persons_rated": 0
    }
}